{
	"debug": true,
	"testing": true,
	"spaceship":{
		"acceleration":600,
		"maxSpeed":300,
		"health":500,
		"ammo":20,
		"fireRate":10,
		"debug": true
	}
	,"bullet":{
		"speed":1000.0
	},
	"map":{
		"width":1000,
		"heigth":1000
	},
	"asteroids":{
		"amount":15
	}
}